project/h3trinh-pd0-master/verif/sim/verilator/test_pd0/test_pd0.vcd
$version Generated by VerilatedVcd $end
$date Sun Jan 21 19:56:23 2024 $end
$timescale 1ps $end

 $scope module TOP $end
  $scope module top $end
   $var wire  1 ( assign_and_x $end
   $var wire  1 ) assign_and_y $end
   $var wire  1 * assign_and_z $end
   $var wire  1 9 clock $end
   $var wire 32 5 counter [31:0] $end
   $var wire 32 < errors [31:0] $end
   $var wire  1 + reg_and_arst_arst $end
   $var wire  1 - reg_and_arst_x $end
   $var wire  1 , reg_and_arst_x_and_y $end
   $var wire  1 . reg_and_arst_y $end
   $var wire  1 = reg_and_arst_z $end
   $var wire  2 / reg_and_reg_x [1:0] $end
   $var wire  2 0 reg_and_reg_y [1:0] $end
   $var wire  1 > reg_and_reg_z $end
   $var wire  1 # reset $end
   $var wire 32 ' reset_counter [31:0] $end
   $var wire  1 $ reset_done $end
   $var wire  1 % reset_neg $end
   $var wire  1 & reset_reg $end
   $scope module clkg $end
    $var wire  1 9 clk $end
    $var wire 32 1 counter [31:0] $end
    $var wire  1 # rst $end
   $upscope $end
   $scope module dut $end
    $var wire  1 9 clock $end
    $var wire  1 # reset $end
    $scope module core $end
     $var wire  1 6 assign_and_x $end
     $var wire  1 7 assign_and_y $end
     $var wire  1 8 assign_and_z $end
     $var wire  1 9 clock $end
     $var wire  1 : reg_and_arst_reset $end
     $var wire  1 6 reg_and_arst_x $end
     $var wire  1 7 reg_and_arst_y $end
     $var wire  1 ; reg_and_arst_z $end
     $var wire  1 6 reg_and_reg_x $end
     $var wire  1 7 reg_and_reg_y $end
     $var wire  1 2 reg_and_reg_z $end
     $var wire  1 # reset $end
     $scope module assign_and_0 $end
      $var wire  1 6 x $end
      $var wire  1 7 y $end
      $var wire  1 8 z $end
     $upscope $end
     $scope module reg_and_arst_0 $end
      $var wire  1 : areset $end
      $var wire  1 9 clock $end
      $var wire  1 ? out $end
      $var wire  1 6 x $end
      $var wire  1 7 y $end
      $var wire  1 ; z $end
     $upscope $end
     $scope module reg_and_reg_0 $end
      $var wire  1 9 clock $end
      $var wire  1 # reset $end
      $var wire  1 6 x $end
      $var wire  1 3 x_tmp $end
      $var wire  1 7 y $end
      $var wire  1 4 y_tmp $end
      $var wire  1 2 z $end
     $upscope $end
    $upscope $end
   $upscope $end
  $upscope $end
 $upscope $end
$enddefinitions $end


#0
1#
0$
0%
0&
b00000000000000000000000000000000 '
0(
0)
0*
0+
0,
0-
0.
b00 /
b00 0
b00000000000000000000000000000000 1
02
03
04
b00000000000000000000000000000000 5
06
07
08
09
0:
0;
b00000000000000000000000000000000 <
0=
0>
0?
#1
1&
b00000000000000000000000000000001 1
b00000000000000000000000000000001 5
16
19
#2
09
#3
1(
1-
b01 /
b00000000000000000000000000000010 1
b00000000000000000000000000000010 5
06
17
19
#4
09
#5
0(
1)
0-
1.
b10 /
b01 0
b00000000000000000000000000000011 1
b00000000000000000000000000000011 5
16
18
19
#6
09
#7
1(
1*
1,
1-
b01 /
b11 0
b00000000000000000000000000000100 1
b00000000000000000000000000000100 5
06
07
08
19
1;
#8
09
1:
0;
#9
0(
0)
0*
1+
0,
0-
0.
b10 /
b10 0
b00000000000000000000000000000101 1
b00000000000000000000000000000101 5
16
19
0:
#10
09
1:
#11
0#
1(
1-
b01 /
b00 0
b00000000000000000000000000000110 1
b00000000000000000000000000000110 5
06
17
19
0:
#12
09
1:
#13
1%
0&
b00000000000000000000000000000001 '
0(
1)
0-
1.
b10 /
b01 0
b00000000000000000000000000000111 1
14
b00000000000000000000000000000111 5
16
18
19
0:
#14
09
1:
#15
b00000000000000000000000000000010 '
1(
1*
1-
b01 /
b11 0
b00000000000000000000000000001000 1
13
b00000000000000000000000000001000 5
06
07
08
19
0:
#16
09
#17
b00000000000000000000000000000011 '
0(
0)
0*
0+
0-
0.
b10 /
b10 0
b00000000000000000000000000001001 1
12
03
04
b00000000000000000000000000001001 5
16
19
#18
09
#19
1$
b00000000000000000000000000000100 '
1(
1-
b01 /
b00 0
b00000000000000000000000000001010 1
02
13
b00000000000000000000000000001010 5
06
17
19
#20
09
#21
b00000000000000000000000000000101 '
0(
1)
0-
1.
b10 /
b01 0
b00000000000000000000000000001011 1
03
14
b00000000000000000000000000001011 5
16
18
19
#22
09
#23
b00000000000000000000000000000110 '
1(
1*
1,
1-
b01 /
b11 0
b00000000000000000000000000001100 1
13
b00000000000000000000000000001100 5
06
07
08
19
1;
#24
09
1:
0;
#25
b00000000000000000000000000000111 '
0(
0)
0*
1+
0,
0-
0.
b10 /
b10 0
b00000000000000000000000000001101 1
12
03
04
b00000000000000000000000000001101 5
16
19
0:
#26
09
1:
#27
b00000000000000000000000000001000 '
1(
1-
b01 /
b00 0
b00000000000000000000000000001110 1
02
13
b00000000000000000000000000001110 5
06
17
19
0:
#28
09
1:
#29
b00000000000000000000000000001001 '
0(
1)
0-
1.
b10 /
b01 0
b00000000000000000000000000001111 1
03
14
b00000000000000000000000000001111 5
16
18
19
0:
#30
09
1:
#31
b00000000000000000000000000001010 '
1(
1*
1-
b01 /
b11 0
b00000000000000000000000000010000 1
13
b00000000000000000000000000010000 5
06
07
08
19
0:
#32
09
#33
b00000000000000000000000000001011 '
0(
0)
0*
0+
0-
0.
b10 /
b10 0
b00000000000000000000000000010001 1
12
03
04
b00000000000000000000000000010001 5
16
19
#34
09
#35
b00000000000000000000000000001100 '
1(
1-
b01 /
b00 0
b00000000000000000000000000010010 1
02
13
b00000000000000000000000000010010 5
06
17
19
#36
09
#37
b00000000000000000000000000001101 '
0(
1)
0-
1.
b10 /
b01 0
b00000000000000000000000000010011 1
03
14
b00000000000000000000000000010011 5
16
18
19
#38
09
#39
b00000000000000000000000000001110 '
1(
1*
1,
1-
b01 /
b11 0
b00000000000000000000000000010100 1
13
b00000000000000000000000000010100 5
06
07
08
19
1;
#40
09
1:
0;
#41
b00000000000000000000000000001111 '
0(
0)
0*
1+
0,
0-
0.
b10 /
b10 0
b00000000000000000000000000010101 1
12
03
04
b00000000000000000000000000010101 5
16
19
0:
#42
09
1:
#43
b00000000000000000000000000010000 '
1(
1-
b01 /
b00 0
b00000000000000000000000000010110 1
02
13
b00000000000000000000000000010110 5
06
17
19
0:
#44
09
1:
#45
b00000000000000000000000000010001 '
0(
1)
0-
1.
b10 /
b01 0
b00000000000000000000000000010111 1
03
14
b00000000000000000000000000010111 5
16
18
19
0:
#46
09
1:
#47
b00000000000000000000000000010010 '
1(
1*
1-
b01 /
b11 0
b00000000000000000000000000011000 1
13
b00000000000000000000000000011000 5
06
07
08
19
0:
#48
09
#49
b00000000000000000000000000010011 '
0(
0)
0*
0+
0-
0.
b10 /
b10 0
b00000000000000000000000000011001 1
12
03
04
b00000000000000000000000000011001 5
16
19
#50
09
#51
b00000000000000000000000000010100 '
1(
1-
b01 /
b00 0
b00000000000000000000000000011010 1
02
13
b00000000000000000000000000011010 5
06
17
19
#52
09
#53
b00000000000000000000000000010101 '
0(
1)
0-
1.
b10 /
b01 0
b00000000000000000000000000011011 1
03
14
b00000000000000000000000000011011 5
16
18
19
#54
09
#55
b00000000000000000000000000010110 '
1(
1*
1,
1-
b01 /
b11 0
b00000000000000000000000000011100 1
13
b00000000000000000000000000011100 5
06
07
08
19
1;
#56
09
1:
0;
#57
b00000000000000000000000000010111 '
0(
0)
0*
1+
0,
0-
0.
b10 /
b10 0
b00000000000000000000000000011101 1
12
03
04
b00000000000000000000000000011101 5
16
19
0:
#58
09
1:
#59
b00000000000000000000000000011000 '
1(
1-
b01 /
b00 0
b00000000000000000000000000011110 1
02
13
b00000000000000000000000000011110 5
06
17
19
0:
#60
09
1:
#61
b00000000000000000000000000011001 '
0(
1)
0-
1.
b10 /
b01 0
b00000000000000000000000000011111 1
03
14
b00000000000000000000000000011111 5
16
18
19
0:
#62
09
1:
#63
b00000000000000000000000000011010 '
1(
1*
1-
b01 /
b11 0
b00000000000000000000000000100000 1
13
b00000000000000000000000000100000 5
06
07
08
19
0:
#64
09
#65
b00000000000000000000000000011011 '
0(
0)
0*
0+
0-
0.
b10 /
b10 0
b00000000000000000000000000100001 1
12
03
04
b00000000000000000000000000100001 5
16
19
#66
09
#67
b00000000000000000000000000011100 '
1(
1-
b01 /
b00 0
b00000000000000000000000000100010 1
02
13
b00000000000000000000000000100010 5
06
17
19
#68
09
#69
b00000000000000000000000000011101 '
0(
1)
0-
1.
b10 /
b01 0
b00000000000000000000000000100011 1
03
14
b00000000000000000000000000100011 5
16
18
19
#70
09
#71
b00000000000000000000000000011110 '
1(
1*
1,
1-
b01 /
b11 0
b00000000000000000000000000100100 1
13
b00000000000000000000000000100100 5
06
07
08
19
1;
#72
09
1:
0;
#73
b00000000000000000000000000011111 '
0(
0)
0*
1+
0,
0-
0.
b10 /
b10 0
b00000000000000000000000000100101 1
12
03
04
b00000000000000000000000000100101 5
16
19
0:
#74
09
1:
#75
b00000000000000000000000000100000 '
1(
1-
b01 /
b00 0
b00000000000000000000000000100110 1
02
13
b00000000000000000000000000100110 5
06
17
19
0:
#76
09
1:
#77
b00000000000000000000000000100001 '
0(
1)
0-
1.
b10 /
b01 0
b00000000000000000000000000100111 1
03
14
b00000000000000000000000000100111 5
16
18
19
0:
#78
09
1:
#79
b00000000000000000000000000100010 '
1(
1*
1-
b01 /
b11 0
b00000000000000000000000000101000 1
13
b00000000000000000000000000101000 5
06
07
08
19
0:
#80
09
#81
b00000000000000000000000000100011 '
0(
0)
0*
0+
0-
0.
b10 /
b10 0
b00000000000000000000000000101001 1
12
03
04
b00000000000000000000000000101001 5
16
19
#82
09
#83
b00000000000000000000000000100100 '
1(
1-
b01 /
b00 0
b00000000000000000000000000101010 1
02
13
b00000000000000000000000000101010 5
06
17
19
#84
09
#85
b00000000000000000000000000100101 '
0(
1)
0-
1.
b10 /
b01 0
b00000000000000000000000000101011 1
03
14
b00000000000000000000000000101011 5
16
18
19
#86
09
#87
b00000000000000000000000000100110 '
1(
1*
1,
1-
b01 /
b11 0
b00000000000000000000000000101100 1
13
b00000000000000000000000000101100 5
06
07
08
19
1;
#88
09
1:
0;
#89
b00000000000000000000000000100111 '
0(
0)
0*
1+
0,
0-
0.
b10 /
b10 0
b00000000000000000000000000101101 1
12
03
04
b00000000000000000000000000101101 5
16
19
0:
#90
09
1:
#91
b00000000000000000000000000101000 '
1(
1-
b01 /
b00 0
b00000000000000000000000000101110 1
02
13
b00000000000000000000000000101110 5
06
17
19
0:
#92
09
1:
#93
b00000000000000000000000000101001 '
0(
1)
0-
1.
b10 /
b01 0
b00000000000000000000000000101111 1
03
14
b00000000000000000000000000101111 5
16
18
19
0:
#94
09
1:
#95
b00000000000000000000000000101010 '
1(
1*
1-
b01 /
b11 0
b00000000000000000000000000110000 1
13
b00000000000000000000000000110000 5
06
07
08
19
0:
#96
09
#97
b00000000000000000000000000101011 '
0(
0)
0*
0+
0-
0.
b10 /
b10 0
b00000000000000000000000000110001 1
12
03
04
b00000000000000000000000000110001 5
16
19
#98
09
#99
b00000000000000000000000000101100 '
1(
1-
b01 /
b00 0
b00000000000000000000000000110010 1
02
13
b00000000000000000000000000110010 5
06
17
19
#100
09
#101
b00000000000000000000000000101101 '
0(
1)
0-
1.
b10 /
b01 0
b00000000000000000000000000110011 1
03
14
b00000000000000000000000000110011 5
16
18
19
#102
09
#103
b00000000000000000000000000101110 '
1(
1*
1,
1-
b01 /
b11 0
b00000000000000000000000000110100 1
13
b00000000000000000000000000110100 5
06
07
08
19
1;
#104
09
1:
0;
#105
b00000000000000000000000000101111 '
0(
0)
0*
1+
0,
0-
0.
b10 /
b10 0
b00000000000000000000000000110101 1
12
03
04
b00000000000000000000000000110101 5
16
19
0:
#106
09
1:
#107
b00000000000000000000000000110000 '
1(
1-
b01 /
b00 0
b00000000000000000000000000110110 1
02
13
b00000000000000000000000000110110 5
06
17
19
0:
#108
09
1:
#109
b00000000000000000000000000110001 '
0(
1)
0-
1.
b10 /
b01 0
b00000000000000000000000000110111 1
03
14
b00000000000000000000000000110111 5
16
18
19
0:
#110
09
1:
#111
b00000000000000000000000000110010 '
1(
1*
1-
b01 /
b11 0
b00000000000000000000000000111000 1
13
b00000000000000000000000000111000 5
06
07
08
19
0:
#112
09
#113
b00000000000000000000000000110011 '
0(
0)
0*
0+
0-
0.
b10 /
b10 0
b00000000000000000000000000111001 1
12
03
04
b00000000000000000000000000111001 5
16
19
#114
09
#115
b00000000000000000000000000110100 '
1(
1-
b01 /
b00 0
b00000000000000000000000000111010 1
02
13
b00000000000000000000000000111010 5
06
17
19
#116
09
#117
b00000000000000000000000000110101 '
0(
1)
0-
1.
b10 /
b01 0
b00000000000000000000000000111011 1
03
14
b00000000000000000000000000111011 5
16
18
19
#118
09
#119
b00000000000000000000000000110110 '
1(
1*
1,
1-
b01 /
b11 0
b00000000000000000000000000111100 1
13
b00000000000000000000000000111100 5
06
07
08
19
1;
#120
09
1:
0;
#121
b00000000000000000000000000110111 '
0(
0)
0*
1+
0,
0-
0.
b10 /
b10 0
b00000000000000000000000000111101 1
12
03
04
b00000000000000000000000000111101 5
16
19
0:
#122
09
1:
#123
b00000000000000000000000000111000 '
1(
1-
b01 /
b00 0
b00000000000000000000000000111110 1
02
13
b00000000000000000000000000111110 5
06
17
19
0:
#124
09
1:
#125
b00000000000000000000000000111001 '
0(
1)
0-
1.
b10 /
b01 0
b00000000000000000000000000111111 1
03
14
b00000000000000000000000000111111 5
16
18
19
0:
#126
09
1:
#127
b00000000000000000000000000111010 '
1(
1*
1-
b01 /
b11 0
b00000000000000000000000001000000 1
13
b00000000000000000000000001000000 5
06
07
08
19
0:
#128
09
#129
b00000000000000000000000000111011 '
0(
0)
0*
0+
0-
0.
b10 /
b10 0
b00000000000000000000000001000001 1
12
03
04
b00000000000000000000000001000001 5
16
19
#130
09
#131
b00000000000000000000000000111100 '
1(
1-
b01 /
b00 0
b00000000000000000000000001000010 1
02
13
b00000000000000000000000001000010 5
06
17
19
#132
09
#133
b00000000000000000000000000111101 '
0(
1)
0-
1.
b10 /
b01 0
b00000000000000000000000001000011 1
03
14
b00000000000000000000000001000011 5
16
18
19
#134
09
#135
b00000000000000000000000000111110 '
1(
1*
1,
1-
b01 /
b11 0
b00000000000000000000000001000100 1
13
b00000000000000000000000001000100 5
06
07
08
19
1;
#136
09
1:
0;
#137
b00000000000000000000000000111111 '
0(
0)
0*
1+
0,
0-
0.
b10 /
b10 0
b00000000000000000000000001000101 1
12
03
04
b00000000000000000000000001000101 5
16
19
0:
#138
09
1:
#139
b00000000000000000000000001000000 '
1(
1-
b01 /
b00 0
b00000000000000000000000001000110 1
02
13
b00000000000000000000000001000110 5
06
17
19
0:
#140
09
1:
#141
b00000000000000000000000001000001 '
0(
1)
0-
1.
b10 /
b01 0
b00000000000000000000000001000111 1
03
14
b00000000000000000000000001000111 5
16
18
19
0:
#142
09
1:
#143
b00000000000000000000000001000010 '
1(
1*
1-
b01 /
b11 0
b00000000000000000000000001001000 1
13
b00000000000000000000000001001000 5
06
07
08
19
0:
#144
09
#145
b00000000000000000000000001000011 '
0(
0)
0*
0+
0-
0.
b10 /
b10 0
b00000000000000000000000001001001 1
12
03
04
b00000000000000000000000001001001 5
16
19
#146
09
#147
b00000000000000000000000001000100 '
1(
1-
b01 /
b00 0
b00000000000000000000000001001010 1
02
13
b00000000000000000000000001001010 5
06
17
19
#148
09
#149
b00000000000000000000000001000101 '
0(
1)
0-
1.
b10 /
b01 0
b00000000000000000000000001001011 1
03
14
b00000000000000000000000001001011 5
16
18
19
#150
09
#151
b00000000000000000000000001000110 '
1(
1*
1,
1-
b01 /
b11 0
b00000000000000000000000001001100 1
13
b00000000000000000000000001001100 5
06
07
08
19
1;
#152
09
1:
0;
#153
b00000000000000000000000001000111 '
0(
0)
0*
1+
0,
0-
0.
b10 /
b10 0
b00000000000000000000000001001101 1
12
03
04
b00000000000000000000000001001101 5
16
19
0:
#154
09
1:
#155
b00000000000000000000000001001000 '
1(
1-
b01 /
b00 0
b00000000000000000000000001001110 1
02
13
b00000000000000000000000001001110 5
06
17
19
0:
#156
09
1:
#157
b00000000000000000000000001001001 '
0(
1)
0-
1.
b10 /
b01 0
b00000000000000000000000001001111 1
03
14
b00000000000000000000000001001111 5
16
18
19
0:
#158
09
1:
#159
b00000000000000000000000001001010 '
1(
1*
1-
b01 /
b11 0
b00000000000000000000000001010000 1
13
b00000000000000000000000001010000 5
06
07
08
19
0:
#160
09
#161
b00000000000000000000000001001011 '
0(
0)
0*
0+
0-
0.
b10 /
b10 0
b00000000000000000000000001010001 1
12
03
04
b00000000000000000000000001010001 5
16
19
#162
09
#163
b00000000000000000000000001001100 '
1(
1-
b01 /
b00 0
b00000000000000000000000001010010 1
02
13
b00000000000000000000000001010010 5
06
17
19
#164
09
#165
b00000000000000000000000001001101 '
0(
1)
0-
1.
b10 /
b01 0
b00000000000000000000000001010011 1
03
14
b00000000000000000000000001010011 5
16
18
19
#166
09
#167
b00000000000000000000000001001110 '
1(
1*
1,
1-
b01 /
b11 0
b00000000000000000000000001010100 1
13
b00000000000000000000000001010100 5
06
07
08
19
1;
#168
09
1:
0;
#169
b00000000000000000000000001001111 '
0(
0)
0*
1+
0,
0-
0.
b10 /
b10 0
b00000000000000000000000001010101 1
12
03
04
b00000000000000000000000001010101 5
16
19
0:
#170
09
1:
#171
b00000000000000000000000001010000 '
1(
1-
b01 /
b00 0
b00000000000000000000000001010110 1
02
13
b00000000000000000000000001010110 5
06
17
19
0:
#172
09
1:
#173
b00000000000000000000000001010001 '
0(
1)
0-
1.
b10 /
b01 0
b00000000000000000000000001010111 1
03
14
b00000000000000000000000001010111 5
16
18
19
0:
#174
09
1:
#175
b00000000000000000000000001010010 '
1(
1*
1-
b01 /
b11 0
b00000000000000000000000001011000 1
13
b00000000000000000000000001011000 5
06
07
08
19
0:
#176
09
#177
b00000000000000000000000001010011 '
0(
0)
0*
0+
0-
0.
b10 /
b10 0
b00000000000000000000000001011001 1
12
03
04
b00000000000000000000000001011001 5
16
19
#178
09
#179
b00000000000000000000000001010100 '
1(
1-
b01 /
b00 0
b00000000000000000000000001011010 1
02
13
b00000000000000000000000001011010 5
06
17
19
#180
09
#181
b00000000000000000000000001010101 '
0(
1)
0-
1.
b10 /
b01 0
b00000000000000000000000001011011 1
03
14
b00000000000000000000000001011011 5
16
18
19
#182
09
#183
b00000000000000000000000001010110 '
1(
1*
1,
1-
b01 /
b11 0
b00000000000000000000000001011100 1
13
b00000000000000000000000001011100 5
06
07
08
19
1;
#184
09
1:
0;
#185
b00000000000000000000000001010111 '
0(
0)
0*
1+
0,
0-
0.
b10 /
b10 0
b00000000000000000000000001011101 1
12
03
04
b00000000000000000000000001011101 5
16
19
0:
#186
09
1:
#187
b00000000000000000000000001011000 '
1(
1-
b01 /
b00 0
b00000000000000000000000001011110 1
02
13
b00000000000000000000000001011110 5
06
17
19
0:
#188
09
1:
#189
b00000000000000000000000001011001 '
0(
1)
0-
1.
b10 /
b01 0
b00000000000000000000000001011111 1
03
14
b00000000000000000000000001011111 5
16
18
19
0:
#190
09
1:
#191
b00000000000000000000000001011010 '
1(
1*
1-
b01 /
b11 0
b00000000000000000000000001100000 1
13
b00000000000000000000000001100000 5
06
07
08
19
0:
#192
09
#193
b00000000000000000000000001011011 '
0(
0)
0*
0+
0-
0.
b10 /
b10 0
b00000000000000000000000001100001 1
12
03
04
b00000000000000000000000001100001 5
16
19
#194
09
#195
b00000000000000000000000001011100 '
1(
1-
b01 /
b00 0
b00000000000000000000000001100010 1
02
13
b00000000000000000000000001100010 5
06
17
19
#196
09
#197
b00000000000000000000000001011101 '
0(
1)
0-
1.
b10 /
b01 0
b00000000000000000000000001100011 1
03
14
b00000000000000000000000001100011 5
16
18
19
#198
09
#199
b00000000000000000000000001011110 '
1(
1*
1,
1-
b01 /
b11 0
b00000000000000000000000001100100 1
13
b00000000000000000000000001100100 5
06
07
08
19
1;
#200
09
1:
0;
#201
b00000000000000000000000001011111 '
0(
0)
0*
1+
0,
0-
0.
b10 /
b10 0
b00000000000000000000000001100101 1
12
03
04
b00000000000000000000000001100101 5
16
19
0:
